{
  "kind": "collectionType",
  "collectionName": "Exigence",
  "info": {
    "name": "Exigence"
  },
  "options": {
    "increments": true,
    "timestamps": true
  },
  "attributes": {
    "value": {
      "type": "integer",
      "max": 10,
      "min": 0,
      "required": true
    },
    "template_theme_exigence": {
      "model": "template-theme-exigence",
      "via": "exigences"
    }
  }
}
