{
  "kind": "collectionType",
  "collectionName": "TemplateNameExigence",
  "info": {
    "name": "TemplateThemeExigence"
  },
  "options": {
    "increments": true,
    "timestamps": true
  },
  "attributes": {
    "name": {
      "type": "string",
      "required": true
    },
    "exigences": {
      "via": "template_theme_exigence",
      "collection": "exigence"
    }
  }
}
