{
  "routes": [
    {
      "method": "GET",
      "path": "/recruiter-users",
      "handler": "recruiter-user.find",
      "config": {
        "policies": []
      }
    },
    {
      "method": "GET",
      "path": "/recruiter-users/count",
      "handler": "recruiter-user.count",
      "config": {
        "policies": []
      }
    },
    {
      "method": "GET",
      "path": "/recruiter-users/:id",
      "handler": "recruiter-user.findOne",
      "config": {
        "policies": []
      }
    },
    {
      "method": "POST",
      "path": "/recruiter-users",
      "handler": "recruiter-user.create",
      "config": {
        "policies": []
      }
    },
    {
      "method": "PUT",
      "path": "/recruiter-users/:id",
      "handler": "recruiter-user.update",
      "config": {
        "policies": []
      }
    },
    {
      "method": "DELETE",
      "path": "/recruiter-users/:id",
      "handler": "recruiter-user.delete",
      "config": {
        "policies": []
      }
    }
  ]
}
